[gd_scene load_steps=5 format=2]

[ext_resource path="res://icon.png" type="Texture" id=1]

[sub_resource type="SGCurve2D" id=1]
_data = {
"points": [ [ 0, 0 ], [ 0, 0 ], [ 31653888, 8650752 ], [ 9825847, -6110189 ], [ -9825847, 6110189 ], [ 42008576, 20054016 ], [ 0, 0 ], [ 0, 0 ], [ 31784960, 31850496 ], [ 0, 0 ], [ 0, 0 ], [ 23068672, 19464192 ], [ 0, 0 ], [ 0, 0 ], [ 31653888, 8650752 ] ]
}

[sub_resource type="Animation" id=2]
length = 0.001
tracks/0/type = "value"
tracks/0/path = NodePath("SGPath2D/SGPathFollow2D:unit_offset")
tracks/0/interp = 1
tracks/0/loop_wrap = true
tracks/0/imported = false
tracks/0/enabled = true
tracks/0/keys = {
"times": PoolRealArray( 0 ),
"transitions": PoolRealArray( 1 ),
"update": 0,
"values": [ 0 ]
}
tracks/1/type = "value"
tracks/1/path = NodePath("SGPath2D/SGPathFollow2D:fixed_rotation")
tracks/1/interp = 1
tracks/1/loop_wrap = true
tracks/1/imported = false
tracks/1/enabled = true
tracks/1/keys = {
"times": PoolRealArray( 0 ),
"transitions": PoolRealArray( 1 ),
"update": 1,
"values": [ 0 ]
}

[sub_resource type="Animation" id=3]
resource_name = "path"
length = 5.0
loop = true
tracks/0/type = "value"
tracks/0/path = NodePath("SGPath2D/SGPathFollow2D:unit_offset")
tracks/0/interp = 1
tracks/0/loop_wrap = true
tracks/0/imported = false
tracks/0/enabled = true
tracks/0/keys = {
"times": PoolRealArray( 0, 5 ),
"transitions": PoolRealArray( 1, 1 ),
"update": 0,
"values": [ 0, 65536 ]
}

[node name="PathFollow" type="Node2D"]

[node name="SGPath2D" type="SGPath2D" parent="."]
curve = SubResource( 1 )

[node name="SGPathFollow2D" type="SGPathFollow2D" parent="SGPath2D"]
position = Vector2( 483, 132 )
scale = Vector2( 1, 1 )
fixed_position_x = 31653888
fixed_position_y = 8650752

[node name="Sprite" type="Sprite" parent="SGPath2D/SGPathFollow2D"]
texture = ExtResource( 1 )

[node name="AnimationPlayer" type="AnimationPlayer" parent="."]
autoplay = "path"
anims/RESET = SubResource( 2 )
anims/path = SubResource( 3 )
